uP_tb.vcd
$date
	Sun Nov 22 18:53:53 2020
$end
$version
	Icarus Verilog
$end
$timescale
	1ps
$end
$scope module testbench $end
$var wire 4 ! data_bus [3:0] $end
$var wire 1 " z_flag $end
$var wire 8 # program_byte [7:0] $end
$var wire 1 $ phase $end
$var wire 4 % oprnd [3:0] $end
$var wire 4 & instr [3:0] $end
$var wire 1 ' c_flag $end
$var wire 12 ( address_RAM [11:0] $end
$var wire 4 ) accu [3:0] $end
$var wire 12 * PC [11:0] $end
$var wire 4 + FF_out [3:0] $end
$var reg 1 , clock $end
$var reg 4 - pushbuttons [3:0] $end
$var reg 1 . reset $end
$var integer 32 / immediateDelay [31:0] $end
$var integer 32 0 jumpDelay [31:0] $end
$var integer 32 1 memoryDelay [31:0] $end
$var integer 32 2 nota [31:0] $end
$scope module uPmodule $end
$var wire 1 , clock $end
$var wire 4 3 data_bus [3:0] $end
$var wire 4 4 pushbuttons [3:0] $end
$var wire 1 . reset $end
$var wire 1 " z_flag $end
$var wire 8 5 program_byte [7:0] $end
$var wire 1 $ phase $end
$var wire 13 6 out_decoder [12:0] $end
$var wire 4 7 oprnd [3:0] $end
$var wire 4 8 instr [3:0] $end
$var wire 7 9 in_decoder [6:0] $end
$var wire 1 ' c_flag $end
$var wire 12 : address_RAM [11:0] $end
$var wire 4 ; accu [3:0] $end
$var wire 1 < Ze $end
$var wire 12 = PC [11:0] $end
$var wire 4 > FF_out [3:0] $end
$var wire 1 ? C $end
$var wire 4 @ ALU_out [3:0] $end
$scope module Accumulator $end
$var wire 1 , clk $end
$var wire 1 A enable $end
$var wire 1 . reset $end
$var wire 4 B Q [3:0] $end
$var wire 4 C D [3:0] $end
$scope module accu_0 $end
$var wire 2 D D [1:0] $end
$var wire 1 , clk $end
$var wire 1 A enable $end
$var wire 1 . reset $end
$var wire 2 E Q [1:0] $end
$scope module ffd1b_0 $end
$var wire 1 F D $end
$var wire 1 , clk $end
$var wire 1 A enable $end
$var wire 1 . reset $end
$var reg 1 G Q $end
$upscope $end
$scope module ffd1b_1 $end
$var wire 1 H D $end
$var wire 1 , clk $end
$var wire 1 A enable $end
$var wire 1 . reset $end
$var reg 1 I Q $end
$upscope $end
$upscope $end
$scope module accu_1 $end
$var wire 2 J D [1:0] $end
$var wire 1 , clk $end
$var wire 1 A enable $end
$var wire 1 . reset $end
$var wire 2 K Q [1:0] $end
$scope module ffd1b_0 $end
$var wire 1 L D $end
$var wire 1 , clk $end
$var wire 1 A enable $end
$var wire 1 . reset $end
$var reg 1 M Q $end
$upscope $end
$scope module ffd1b_1 $end
$var wire 1 N D $end
$var wire 1 , clk $end
$var wire 1 A enable $end
$var wire 1 . reset $end
$var reg 1 O Q $end
$upscope $end
$upscope $end
$upscope $end
$scope module BusALU $end
$var wire 1 P enable $end
$var wire 4 Q salidas [3:0] $end
$var wire 4 R entradas [3:0] $end
$upscope $end
$scope module BusFetch $end
$var wire 1 S enable $end
$var wire 4 T salidas [3:0] $end
$var wire 4 U entradas [3:0] $end
$upscope $end
$scope module BusIn $end
$var wire 1 V enable $end
$var wire 4 W entradas [3:0] $end
$var wire 4 X salidas [3:0] $end
$upscope $end
$scope module Decoder $end
$var wire 7 Y in [6:0] $end
$var wire 13 Z outD [12:0] $end
$var reg 13 [ out [12:0] $end
$upscope $end
$scope module Fetch $end
$var wire 1 \ En2 $end
$var wire 1 , clk $end
$var wire 1 . reset $end
$var wire 4 ] Q2 [3:0] $end
$var wire 4 ^ Q1 [3:0] $end
$var wire 8 _ D4 [7:0] $end
$scope module fetch_0 $end
$var wire 4 ` D [3:0] $end
$var wire 1 , clk $end
$var wire 1 \ enable $end
$var wire 1 . reset $end
$var wire 4 a Q [3:0] $end
$scope module ffd2b_0 $end
$var wire 2 b D [1:0] $end
$var wire 1 , clk $end
$var wire 1 \ enable $end
$var wire 1 . reset $end
$var wire 2 c Q [1:0] $end
$scope module ffd1b_0 $end
$var wire 1 d D $end
$var wire 1 , clk $end
$var wire 1 \ enable $end
$var wire 1 . reset $end
$var reg 1 e Q $end
$upscope $end
$scope module ffd1b_1 $end
$var wire 1 f D $end
$var wire 1 , clk $end
$var wire 1 \ enable $end
$var wire 1 . reset $end
$var reg 1 g Q $end
$upscope $end
$upscope $end
$scope module ffd2b_1 $end
$var wire 2 h D [1:0] $end
$var wire 1 , clk $end
$var wire 1 \ enable $end
$var wire 1 . reset $end
$var wire 2 i Q [1:0] $end
$scope module ffd1b_0 $end
$var wire 1 j D $end
$var wire 1 , clk $end
$var wire 1 \ enable $end
$var wire 1 . reset $end
$var reg 1 k Q $end
$upscope $end
$scope module ffd1b_1 $end
$var wire 1 l D $end
$var wire 1 , clk $end
$var wire 1 \ enable $end
$var wire 1 . reset $end
$var reg 1 m Q $end
$upscope $end
$upscope $end
$upscope $end
$scope module fetch_1 $end
$var wire 4 n D [3:0] $end
$var wire 1 , clk $end
$var wire 1 \ enable $end
$var wire 1 . reset $end
$var wire 4 o Q [3:0] $end
$scope module ffd2b_0 $end
$var wire 2 p D [1:0] $end
$var wire 1 , clk $end
$var wire 1 \ enable $end
$var wire 1 . reset $end
$var wire 2 q Q [1:0] $end
$scope module ffd1b_0 $end
$var wire 1 r D $end
$var wire 1 , clk $end
$var wire 1 \ enable $end
$var wire 1 . reset $end
$var reg 1 s Q $end
$upscope $end
$scope module ffd1b_1 $end
$var wire 1 t D $end
$var wire 1 , clk $end
$var wire 1 \ enable $end
$var wire 1 . reset $end
$var reg 1 u Q $end
$upscope $end
$upscope $end
$scope module ffd2b_1 $end
$var wire 2 v D [1:0] $end
$var wire 1 , clk $end
$var wire 1 \ enable $end
$var wire 1 . reset $end
$var wire 2 w Q [1:0] $end
$scope module ffd1b_0 $end
$var wire 1 x D $end
$var wire 1 , clk $end
$var wire 1 \ enable $end
$var wire 1 . reset $end
$var reg 1 y Q $end
$upscope $end
$scope module ffd1b_1 $end
$var wire 1 z D $end
$var wire 1 , clk $end
$var wire 1 \ enable $end
$var wire 1 . reset $end
$var reg 1 { Q $end
$upscope $end
$upscope $end
$upscope $end
$upscope $end
$scope module OutputsFFD4 $end
$var wire 4 | D [3:0] $end
$var wire 1 , clk $end
$var wire 1 } enable $end
$var wire 1 . reset $end
$var wire 4 ~ Q [3:0] $end
$scope module ffd2b_0 $end
$var wire 2 !" D [1:0] $end
$var wire 1 , clk $end
$var wire 1 } enable $end
$var wire 1 . reset $end
$var wire 2 "" Q [1:0] $end
$scope module ffd1b_0 $end
$var wire 1 #" D $end
$var wire 1 , clk $end
$var wire 1 } enable $end
$var wire 1 . reset $end
$var reg 1 $" Q $end
$upscope $end
$scope module ffd1b_1 $end
$var wire 1 %" D $end
$var wire 1 , clk $end
$var wire 1 } enable $end
$var wire 1 . reset $end
$var reg 1 &" Q $end
$upscope $end
$upscope $end
$scope module ffd2b_1 $end
$var wire 2 '" D [1:0] $end
$var wire 1 , clk $end
$var wire 1 } enable $end
$var wire 1 . reset $end
$var wire 2 (" Q [1:0] $end
$scope module ffd1b_0 $end
$var wire 1 )" D $end
$var wire 1 , clk $end
$var wire 1 } enable $end
$var wire 1 . reset $end
$var reg 1 *" Q $end
$upscope $end
$scope module ffd1b_1 $end
$var wire 1 +" D $end
$var wire 1 , clk $end
$var wire 1 } enable $end
$var wire 1 . reset $end
$var reg 1 ," Q $end
$upscope $end
$upscope $end
$upscope $end
$scope module Phase $end
$var wire 1 -" EN $end
$var wire 1 , clk $end
$var wire 1 . reset $end
$var wire 1 $ Q $end
$scope module phasee $end
$var wire 1 ." D $end
$var wire 1 , clk $end
$var wire 1 -" enable $end
$var wire 1 . reset $end
$var reg 1 $ Q $end
$upscope $end
$upscope $end
$scope module ProgramCounter $end
$var wire 1 , clk $end
$var wire 1 /" enable $end
$var wire 12 0" load [11:0] $end
$var wire 1 1" nonb $end
$var wire 1 . reset $end
$var reg 12 2" exit [11:0] $end
$upscope $end
$scope module alu $end
$var wire 4 3" A [3:0] $end
$var wire 4 4" B [3:0] $end
$var wire 3 5" comm [2:0] $end
$var wire 1 < zero $end
$var wire 4 6" result [3:0] $end
$var wire 1 ? carry $end
$var reg 5 7" q [4:0] $end
$upscope $end
$scope module flags_carry $end
$var wire 1 < D1 $end
$var wire 1 ? D2 $end
$var wire 1 , clk $end
$var wire 1 8" enable $end
$var wire 1 . reset $end
$var wire 1 " Ze $end
$var wire 1 ' C $end
$scope module flags_0 $end
$var wire 1 < D $end
$var wire 1 , clk $end
$var wire 1 8" enable $end
$var wire 1 . reset $end
$var reg 1 " Q $end
$upscope $end
$scope module flags_1 $end
$var wire 1 ? D $end
$var wire 1 , clk $end
$var wire 1 8" enable $end
$var wire 1 . reset $end
$var reg 1 ' Q $end
$upscope $end
$upscope $end
$scope module ram $end
$var wire 4 9" Data [3:0] $end
$var wire 12 :" addres [11:0] $end
$var wire 1 ;" enable $end
$var wire 1 <" write $end
$var reg 4 =" dataout [3:0] $end
$upscope $end
$scope module rom $end
$var wire 12 >" add [11:0] $end
$var wire 8 ?" information [7:0] $end
$upscope $end
$upscope $end
$upscope $end
$enddefinitions $end
#0
$dumpvars
bx ?"
bx >"
bx ="
x<"
x;"
bx :"
bx 9"
x8"
bx 7"
bx 6"
bx 5"
bx 4"
bx 3"
bx 2"
x1"
bx 0"
x/"
x."
1-"
x,"
x+"
x*"
x)"
bx ("
bx '"
x&"
x%"
x$"
x#"
bx ""
bx !"
bx ~
x}
bx |
x{
xz
xy
xx
bx w
bx v
xu
xt
xs
xr
bx q
bx p
bx o
bx n
xm
xl
xk
xj
bx i
bx h
xg
xf
xe
xd
bx c
bx b
bx a
bx `
bx _
bx ^
bx ]
x\
bx [
bx Z
bx Y
bx X
b110 W
xV
bx U
bx T
xS
bx R
bx Q
xP
xO
xN
xM
xL
bx K
bx J
xI
xH
xG
xF
bx E
bx D
bx C
bx B
xA
bx @
x?
bx >
bx =
x<
bx ;
bx :
bx 9
bx 8
bx 7
bx 6
bx 5
b110 4
bx 3
b0 2
b100010100 1
b1010010000 0
b10000 /
0.
b110 -
0,
bx +
bx *
bx )
bx (
x'
bx &
bx %
x$
bx #
x"
bx !
$end
#2
0#"
0%"
0)"
0+"
b0 !"
b0 '"
b0 !
b0 3
b0 Q
b0 T
b0 X
b0 |
b0 4"
b0 9"
0}
b0 5"
0A
0<"
0;"
0V
1P
0S
08"
01"
1/"
b1000000001000 6
b1000000001000 Z
b1000000001000 [
0L
0N
0F
0H
1<
1r
1t
1x
1z
0d
1f
0j
0l
b0 J
b0 D
b11 p
b11 v
b1 b
b0 h
b0 @
b0 C
b0 R
b0 6"
0?
b1111 n
b100 `
1."
1\
b0 7"
b1001111 #
b1001111 5
b1001111 _
b1001111 ?"
b0 *
b0 =
b0 2"
b0 >"
0e
b0 c
0g
0k
b0 &
b0 8
b0 ^
b0 a
b0 i
0m
0s
b0 q
0u
0y
b1001111 (
b1001111 :
b1001111 0"
b1001111 :"
b0 %
b0 7
b0 U
b0 ]
b0 o
b0 w
0{
0"
0'
b0 9
b0 Y
0$
0G
b0 E
0I
0M
b0 )
b0 ;
b0 B
b0 3"
b0 K
0O
0$"
b0 ""
0&"
0*"
b0 +
b0 >
b0 ~
b0 ("
0,"
1.
#3
0.
#5
1L
1N
1F
1H
0<
b11 J
b11 D
1#"
1%"
1)"
1+"
b1111 @
b1111 C
b1111 R
b1111 6"
b11 !"
b11 '"
b1111 7"
b1111 !
b1111 3
b1111 Q
b1111 T
b1111 X
b1111 |
b1111 4"
b1111 9"
b10 5"
1A
0P
1S
18"
0/"
b11010000010 6
b11010000010 Z
b11010000010 [
1d
1l
b11 b
b1 h
0."
0\
b1101 `
1$
1{
b11 w
1y
1u
b1111 %
b1111 7
b1111 U
b1111 ]
b1111 o
b11 q
1s
b100001 9
b100001 Y
b100 &
b100 8
b100 ^
b100 a
b1 c
1g
b111111011111 (
b111111011111 :
b111111011111 0"
b111111011111 :"
b11011111 #
b11011111 5
b11011111 _
b11011111 ?"
b1 *
b1 =
b1 2"
b1 >"
1,
#10
0,
#15
b1111 !
b1111 3
b1111 Q
b1111 T
b1111 X
b1111 |
b1111 4"
b1111 9"
b0 5"
0A
1P
0S
08"
1/"
b1000000001000 6
b1000000001000 Z
b1000000001000 [
1."
1\
b100000 9
b100000 Y
0$
1G
b11 E
1I
1M
b1111 )
b1111 ;
b1111 B
b1111 3"
b11 K
1O
1,
#16
b1000110 2
#20
0,
#25
1}
0/"
b1001 6
b1001 Z
b1001 [
0r
0t
0x
0d
b0 p
b1 v
b1 b
0."
0\
b1 n
b101 `
1$
b1 i
1m
b1101001 9
b1101001 Y
b1101 &
b1101 8
b1101 ^
b1101 a
b11 c
1e
b111101010001 (
b111101010001 :
b111101010001 0"
b111101010001 :"
b1010001 #
b1010001 5
b1010001 _
b1010001 ?"
b10 *
b10 =
b10 2"
b10 >"
1,
#30
0,
#35
0}
1/"
b1000000001000 6
b1000000001000 Z
b1000000001000 [
1."
1\
b1101000 9
b1101000 Y
0$
1$"
b11 ""
1&"
1*"
b1111 +
b1111 >
b1111 ~
b11 ("
1,"
1,
#36
b1100111 2
#40
0,
#45
0N
0F
b10 J
b1 D
0#"
0+"
b110 @
b110 C
b110 R
b110 6"
b1 !"
b10 '"
b110 7"
b110 !
b110 3
b110 Q
b110 T
b110 X
b110 |
b110 4"
b110 9"
b10 5"
1A
1V
0P
18"
0/"
b11010000100 6
b11010000100 Z
b11010000100 [
0z
0l
b0 v
b0 h
0."
0\
b0 n
b100 `
1$
b1 w
0y
0u
b1 %
b1 7
b1 U
b1 ]
b1 o
b0 q
0s
b101001 9
b101001 Y
b101 &
b101 8
b101 ^
b101 a
b1 c
0e
b101000000 (
b101000000 :
b101000000 0"
b101000000 :"
b1000000 #
b1000000 5
b1000000 _
b1000000 ?"
b11 *
b11 =
b11 2"
b11 >"
1,
#50
0,
#55
b0 5"
0A
0V
1P
08"
1/"
b1000000001000 6
b1000000001000 Z
b1000000001000 [
1."
1\
b101000 9
b101000 Y
0$
b1 E
0G
b110 )
b110 ;
b110 B
b110 3"
b10 K
0O
1,
#56
b10001000 2
#60
0,
#65
1<
0L
0H
b0 J
b0 D
0%"
0)"
b0 @
b0 C
b0 R
b0 6"
b0 !"
b0 '"
b0 7"
b0 !
b0 3
b0 Q
b0 T
b0 X
b0 |
b0 4"
b0 9"
b10 5"
1A
0P
1S
18"
0/"
b11010000010 6
b11010000010 Z
b11010000010 [
1r
1t
1x
1z
b11 p
b11 v
0."
0\
b1111 n
1$
b0 %
b0 7
b0 U
b0 ]
b0 o
b0 w
0{
b100001 9
b100001 Y
b100 &
b100 8
b100 ^
b100 a
b0 i
0m
b1001111 (
b1001111 :
b1001111 0"
b1001111 :"
b1001111 #
b1001111 5
b1001111 _
b1001111 ?"
b100 *
b100 =
b100 2"
b100 >"
1,
#70
0,
#75
b0 !
b0 3
b0 Q
b0 T
b0 X
b0 |
b0 4"
b0 9"
b0 5"
0A
1P
0S
08"
1/"
b1000000001000 6
b1000000001000 Z
b1000000001000 [
1."
1\
1"
b100010 9
b100010 Y
0$
b0 E
0I
b0 )
b0 ;
b0 B
b0 3"
b0 K
0M
1,
#80
0,
#85
1L
1N
1F
1H
0<
b11 J
b11 D
1#"
1%"
1)"
1+"
b1111 @
b1111 C
b1111 R
b1111 6"
b11 !"
b11 '"
b1111 7"
b1111 !
b1111 3
b1111 Q
b1111 T
b1111 X
b1111 |
b1111 4"
b1111 9"
b10 5"
1A
0P
1S
18"
0/"
b11010000010 6
b11010000010 Z
b11010000010 [
0t
0z
1d
0f
1j
b10 p
b10 v
b10 b
b10 h
0."
0\
b1010 n
b1010 `
b100011 9
b100011 Y
1$
1{
b11 w
1y
1u
b1111 %
b1111 7
b1111 U
b1111 ]
b1111 o
b11 q
1s
b111110101010 (
b111110101010 :
b111110101010 0"
b111110101010 :"
b10101010 #
b10101010 5
b10101010 _
b10101010 ?"
b101 *
b101 =
b101 2"
b101 >"
1,
#90
0,
#95
b1111 !
b1111 3
b1111 Q
b1111 T
b1111 X
b1111 |
b1111 4"
b1111 9"
b0 5"
0A
1P
0S
08"
1/"
b1000000001000 6
b1000000001000 Z
b1000000001000 [
1."
1\
0"
b100000 9
b100000 Y
0$
1G
b11 E
1I
1M
b1111 )
b1111 ;
b1111 B
b1111 3"
b11 K
1O
1,
#100
0,
#105
0L
0H
b1 J
b10 D
0%"
0+"
b1001 @
b1001 C
b1001 R
b1001 6"
1?
b10 !"
b10 '"
b11001 7"
b1010 !
b1010 3
b1010 Q
b1010 T
b1010 X
b1010 |
b1010 4"
b1010 9"
b11 5"
1A
0P
1S
18"
0/"
b11011000010 6
b11011000010 Z
b11011000010 [
0x
0d
b0 v
b0 b
0."
0\
b1000 n
b10 `
1$
b10 w
0{
b1010 %
b1010 7
b1010 U
b1010 ]
b1010 o
b10 q
0u
b10 i
1k
0g
b1010001 9
b1010001 Y
b1010 &
b1010 8
b1010 ^
b1010 a
b10 c
1e
b101000101000 (
b101000101000 :
b101000101000 0"
b101000101000 :"
b101000 #
b101000 5
b101000 _
b101000 ?"
b110 *
b110 =
b110 2"
b110 >"
1,
#110
0,
#115
0)"
1#"
1+"
0?
b10 !"
b1 '"
b1001 !
b1001 3
b1001 Q
b1001 T
b1001 X
b1001 |
b1001 4"
b1001 9"
b0 5"
0A
1P
0S
08"
1/"
b1000000001000 6
b1000000001000 Z
b1000000001000 [
0L
1F
b1 J
b10 D
b1001 @
b1001 C
b1001 R
b1001 6"
1."
1\
b1001 7"
1'
b1010100 9
b1010100 Y
0$
b10 E
0I
b1001 )
b1001 ;
b1001 B
b1001 3"
b1 K
0M
1,
#116
b10101001 2
#120
0,
#125
0F
b0 D
0+"
b1 @
b1 C
b1 R
b1 6"
b0 '"
b1 7"
b1000 !
b1000 3
b1000 Q
b1000 T
b1000 X
b1000 |
b1000 4"
b1000 9"
b1 5"
0P
1S
18"
0/"
b1001000010 6
b1001000010 Z
b1001000010 [
1x
1f
0j
b10 v
b1 b
b0 h
0."
0\
b1010 n
b100 `
1$
b1000 %
b1000 7
b1000 U
b1000 ]
b1000 o
b0 w
0y
b10101 9
b10101 Y
b10 &
b10 8
b10 ^
b10 a
b0 c
0e
b100001001010 (
b100001001010 :
b100001001010 0"
b100001001010 :"
b1001010 #
b1001010 5
b1001010 _
b1001010 ?"
b111 *
b111 =
b111 2"
b111 >"
1,
#130
0,
#135
1F
b10 D
1#"
1+"
b1001 @
b1001 C
b1001 R
b1001 6"
b10 !"
b1 '"
b1001 7"
b1001 !
b1001 3
b1001 Q
b1001 T
b1001 X
b1001 |
b1001 4"
b1001 9"
b0 5"
1P
0S
08"
1/"
b1000000001000 6
b1000000001000 Z
b1000000001000 [
1."
1\
0'
b10000 9
b10000 Y
0$
1,
#136
b11001010 2
#140
0,
#145
1L
0N
b10 J
1)"
0+"
b1010 @
b1010 C
b1010 R
b1010 6"
b10 '"
b1010 7"
b1010 !
b1010 3
b1010 Q
b1010 T
b1010 X
b1010 |
b1010 4"
b1010 9"
b10 5"
1A
0P
1S
18"
0/"
b11010000010 6
b11010000010 Z
b11010000010 [
1t
0x
0f
1j
b11 p
b0 v
b0 b
b10 h
0."
0\
b1100 n
b10 `
1$
b1010 %
b1010 7
b1010 U
b1010 ]
b1010 o
b10 w
1y
b0 i
0k
b100001 9
b100001 Y
b100 &
b100 8
b100 ^
b100 a
b1 c
1g
b101000101100 (
b101000101100 :
b101000101100 0"
b101000101100 :"
b101100 #
b101100 5
b101100 _
b101100 ?"
b1000 *
b1000 =
b1000 2"
b1000 >"
1,
#150
0,
#155
b1010 !
b1010 3
b1010 Q
b1010 T
b1010 X
b1010 |
b1010 4"
b1010 9"
b0 5"
0A
1P
0S
08"
1/"
b1000000001000 6
b1000000001000 Z
b1000000001000 [
1."
1\
b100000 9
b100000 Y
0$
1M
b1010 )
b1010 ;
b1010 B
b1010 3"
b10 K
0O
1,
#160
0,
#165
1H
b11 D
1%"
0)"
b1110 @
b1110 C
b1110 R
b1110 6"
1?
b11 !"
b0 '"
b11110 7"
b1100 !
b1100 3
b1100 Q
b1100 T
b1100 X
b1100 |
b1100 4"
b1100 9"
b1 5"
0P
1S
18"
0/"
b1001000010 6
b1001000010 Z
b1001000010 [
0r
0t
1z
1d
b0 p
b1 v
b10 b
0."
0\
b1 n
b1010 `
1$
b0 w
0y
b1100 %
b1100 7
b1100 U
b1100 ]
b1100 o
b11 q
1u
b10 i
1k
b10001 9
b10001 Y
b10 &
b10 8
b10 ^
b10 a
b0 c
0g
b110010100001 (
b110010100001 :
b110010100001 0"
b110010100001 :"
b10100001 #
b10100001 5
b10100001 _
b10100001 ?"
b1001 *
b1001 =
b1001 2"
b1001 >"
1,
#170
0,
#175
0%"
b10 !"
0H
b10 D
1)"
b1010 @
b1010 C
b1010 R
b1010 6"
0?
b10 '"
b1010 7"
b1010 !
b1010 3
b1010 Q
b1010 T
b1010 X
b1010 |
b1010 4"
b1010 9"
b0 5"
1P
0S
08"
1/"
b1000000001000 6
b1000000001000 Z
b1000000001000 [
1."
1\
1'
b10100 9
b10100 Y
0$
1,
#176
b11101011 2
#180
0,
#185
1N
b11 J
0#"
0)"
1+"
b1011 @
b1011 C
b1011 R
b1011 6"
b0 !"
b1 '"
b1011 7"
b1 !
b1 3
b1 Q
b1 T
b1 X
b1 |
b1 4"
b1 9"
b11 5"
1A
0P
1S
18"
0/"
b11011000010 6
b11011000010 Z
b11011000010 [
1r
1x
1f
b10 p
b11 v
b11 b
0."
0\
b1011 n
b1110 `
1$
b1 w
1{
0u
b1 %
b1 7
b1 U
b1 ]
b1 o
b0 q
0s
b1010101 9
b1010101 Y
b1010 &
b1010 8
b1010 ^
b1010 a
b10 c
1e
b111101011 (
b111101011 :
b111101011 0"
b111101011 :"
b11101011 #
b11101011 5
b11101011 _
b11101011 ?"
b1010 *
b1010 =
b1010 2"
b1010 >"
1,
#190
0,
#195
1)"
1#"
0%"
1+"
b10 !"
b11 '"
b1011 !
b1011 3
b1011 Q
b1011 T
b1011 X
b1011 |
b1011 4"
b1011 9"
b0 5"
0A
1P
0S
08"
1/"
b1000000001000 6
b1000000001000 Z
b1000000001000 [
1L
1N
0H
b11 J
b10 D
b1011 @
b1011 C
b1011 R
b1011 6"
1."
1\
b1011 7"
0'
b1010000 9
b1010000 Y
0$
b1011 )
b1011 ;
b1011 B
b1011 3"
b11 K
1O
1,
#196
b100001100 2
#200
0,
#205
0L
0N
0F
1H
b0 J
b1 D
b100 @
b100 C
b100 R
b100 6"
b100 7"
b100 5"
1A
0P
1S
18"
0/"
b11100000010 6
b11100000010 Z
b11100000010 [
0r
0x
0z
0j
1l
b0 p
b0 v
b1 h
0."
0\
b0 n
b1101 `
1$
b11 w
1y
b1011 %
b1011 7
b1011 U
b1011 ]
b1011 o
b10 q
1s
b1110001 9
b1110001 Y
b1110 &
b1110 8
b1110 ^
b1110 a
b11 c
1g
b101111010000 (
b101111010000 :
b101111010000 0"
b101111010000 :"
b11010000 #
b11010000 5
b11010000 _
b11010000 ?"
b1011 *
b1011 =
b1011 2"
b1011 >"
1,
#210
0,
#215
0#"
0)"
0+"
b0 '"
1%"
b1 !"
b100 !
b100 3
b100 Q
b100 T
b100 X
b100 |
b100 4"
b100 9"
b0 5"
0A
1P
0S
08"
1/"
b1000000001000 6
b1000000001000 Z
b1000000001000 [
0L
0N
0F
b0 J
b1 D
b100 @
b100 C
b100 R
b100 6"
1."
1\
b100 7"
b1110000 9
b1110000 Y
0$
0G
b1 E
1I
0M
b100 )
b100 ;
b100 B
b100 3"
b0 K
0O
1,
#216
b101001110 2
#220
0,
#225
1}
0/"
b1001 6
b1001 Z
b1001 [
0d
b1 b
0."
0\
b101 `
1$
0{
b0 w
0y
b0 %
b0 7
b0 U
b0 ]
b0 o
b0 q
0s
1m
b1101001 9
b1101001 Y
b1101 &
b1101 8
b1101 ^
b1101 a
b1 i
0k
b1010000 (
b1010000 :
b1010000 0"
b1010000 :"
b1010000 #
b1010000 5
b1010000 _
b1010000 ?"
b1100 *
b1100 =
b1100 2"
b1100 >"
1,
#230
0,
#235
0}
1/"
b1000000001000 6
b1000000001000 Z
b1000000001000 [
1."
1\
b1101000 9
b1101000 Y
0$
b1 ""
0$"
0*"
b100 +
b100 >
b100 ~
b0 ("
0,"
1,
#236
b1110 -
b1110 4
b1110 W
b101101111 2
#240
0,
#245
1L
1F
b10 J
b11 D
1#"
1)"
b1110 @
b1110 C
b1110 R
b1110 6"
b11 !"
b10 '"
b1110 7"
b1110 !
b1110 3
b1110 Q
b1110 T
b1110 X
b1110 |
b1110 4"
b1110 9"
b10 5"
1A
1V
0P
18"
0/"
b11010000100 6
b11010000100 Z
b11010000100 [
1j
b11 h
0."
0\
b111 `
1$
b101001 9
b101001 Y
b101 &
b101 8
b101 ^
b101 a
b1 c
0e
b1110000 (
b1110000 :
b1110000 0"
b1110000 :"
b1110000 #
b1110000 5
b1110000 _
b1110000 ?"
b1101 *
b1101 =
b1101 2"
b1101 >"
1,
#250
0,
#255
b0 5"
0A
0V
1P
08"
1/"
b1000000001000 6
b1000000001000 Z
b1000000001000 [
1."
1\
b101000 9
b101000 Y
0$
b11 E
1G
b1110 )
b1110 ;
b1110 B
b1110 3"
b10 K
1M
1,
#256
b110010000 2
#260
0,
#265
1#"
1%"
1)"
0+"
b11 !"
b10 '"
b1110 !
b1110 3
b1110 Q
b1110 T
b1110 X
b1110 |
b1110 4"
b1110 9"
1<"
1;"
b1000000111000 6
b1000000111000 Z
b1000000111000 [
0f
0j
0l
b0 b
b0 h
0."
0\
b0 `
1$
b111001 9
b111001 Y
b111 &
b111 8
b111 ^
b111 a
b11 i
1k
b0 (
b0 :
b0 0"
b0 :"
b0 #
b0 5
b0 _
b0 ?"
b1110 *
b1110 =
b1110 2"
b1110 >"
1,
#270
0,
#275
0<"
0;"
b1000000001000 6
b1000000001000 Z
b1000000001000 [
1r
1t
1x
1z
1f
b11 p
b11 v
b1 b
b1111 n
b100 `
1."
1\
b1001111 (
b1001111 :
b1001111 0"
b1001111 :"
b1001111 #
b1001111 5
b1001111 _
b1001111 ?"
b1111 *
b1111 =
b1111 2"
b1111 >"
b111000 9
b111000 Y
0$
1,
#280
0,
#285
1N
b11 J
1+"
b1111 @
b1111 C
b1111 R
b1111 6"
b11 '"
b1111 7"
b1111 !
b1111 3
b1111 Q
b1111 T
b1111 X
b1111 |
b1111 4"
b1111 9"
b10 5"
1A
0P
1S
18"
0/"
b11010000010 6
b11010000010 Z
b11010000010 [
0r
0t
0x
1j
1l
b0 p
b1 v
b11 h
0."
0\
b1 n
b111 `
1$
1{
b11 w
1y
1u
b1111 %
b1111 7
b1111 U
b1111 ]
b1111 o
b11 q
1s
0m
b100001 9
b100001 Y
b100 &
b100 8
b100 ^
b100 a
b0 i
0k
b111101110001 (
b111101110001 :
b111101110001 0"
b111101110001 :"
b1110001 #
b1110001 5
b1110001 _
b1110001 ?"
b10000 *
b10000 =
b10000 2"
b10000 >"
1,
#290
0,
#295
b1111 !
b1111 3
b1111 Q
b1111 T
b1111 X
b1111 |
b1111 4"
b1111 9"
b0 5"
0A
1P
0S
08"
1/"
b1000000001000 6
b1000000001000 Z
b1000000001000 [
1."
1\
b100000 9
b100000 Y
0$
b1111 )
b1111 ;
b1111 B
b1111 3"
b11 K
1O
1,
#300
0,
#305
1#"
1%"
1)"
1+"
b11 !"
b11 '"
b1111 !
b1111 3
b1111 Q
b1111 T
b1111 X
b1111 |
b1111 4"
b1111 9"
1<"
1;"
b1000000111000 6
b1000000111000 Z
b1000000111000 [
0f
0j
b0 b
b1 h
0."
0\
b1 `
1$
b1 w
0y
0u
b1 %
b1 7
b1 U
b1 ]
b1 o
b0 q
0s
1m
b111001 9
b111001 Y
b111 &
b111 8
b111 ^
b111 a
b11 i
1k
b100010001 (
b100010001 :
b100010001 0"
b100010001 :"
b10001 #
b10001 5
b10001 _
b10001 ?"
b10001 *
b10001 =
b10001 2"
b10001 >"
1,
#310
0,
#315
0<"
0;"
b1000000001000 6
b1000000001000 Z
b1000000001000 [
1r
1x
0z
1f
0l
b10 p
b10 v
b1 b
b0 h
b1010 n
b100 `
1."
1\
b101001010 (
b101001010 :
b101001010 0"
b101001010 :"
b1001010 #
b1001010 5
b1001010 _
b1001010 ?"
b10010 *
b10010 =
b10010 2"
b10010 >"
b111000 9
b111000 Y
0$
1,
#320
0,
#325
0N
0H
b10 J
b10 D
0%"
0+"
b1010 @
b1010 C
b1010 R
b1010 6"
b10 !"
b10 '"
b1010 7"
b1010 !
b1010 3
b1010 Q
b1010 T
b1010 X
b1010 |
b1010 4"
b1010 9"
b10 5"
1A
0P
1S
18"
0/"
b11010000010 6
b11010000010 Z
b11010000010 [
0r
1j
1l
b0 p
b11 h
0."
0\
b10 n
b111 `
1$
0{
b10 w
1y
b1010 %
b1010 7
b1010 U
b1010 ]
b1010 o
b10 q
1s
0m
b100001 9
b100001 Y
b100 &
b100 8
b100 ^
b100 a
b0 i
0k
b101001110010 (
b101001110010 :
b101001110010 0"
b101001110010 :"
b1110010 #
b1110010 5
b1110010 _
b1110010 ?"
b10011 *
b10011 =
b10011 2"
b10011 >"
1,
#330
0,
#335
b1010 !
b1010 3
b1010 Q
b1010 T
b1010 X
b1010 |
b1010 4"
b1010 9"
b0 5"
0A
1P
0S
08"
1/"
b1000000001000 6
b1000000001000 Z
b1000000001000 [
1."
1\
b100000 9
b100000 Y
0$
b10 E
0I
b1010 )
b1010 ;
b1010 B
b1010 3"
b10 K
0O
1,
#340
0,
